<svg viewBox="0 0 76 76">
  <path d="M69.1 60.1v-35c0-3.8-3.1-6.9-6.9-6.9h-7.7c-.5-1.7-1.8-3-3.5-3.5v-3.9C51 8.2 48.8 6 46.2 6H23.8C21.2 6 19 8.2 19 10.8V18H6.8C3 18 0 21 0 24.8v36.4C0 65 3 68 6.8 68H49c.6 0 1-.5 1-1s-.5-1-1-1H6.8C4.2 66 2 63.8 2 61.2V40h27.1c.5 2.3 2.5 4 4.9 4 2.4 0 4.4-1.7 4.9-4H67v20.1c-4 .5-7 3.9-7 7.9 0 4.4 3.6 8 8 8s8-3.6 8-8c0-4-3-7.4-6.9-7.9zM49.7 16.5c1.7 0 3 1.3 3 3s-1.3 3-3 3-3-1.3-3-3 1.3-3 3-3zM21 10.8C21 9.3 22.3 8 23.8 8h22.4c1.5 0 2.8 1.2 2.8 2.8v3.8c-1.9.3-3.4 1.6-4 3.4H21v-7.2zM34 42c-1.7 0-3-1.3-3-3s1.3-3 3-3 3 1.3 3 3-1.3 3-3 3zm4.9-4c-.5-2.3-2.5-4-4.9-4-2.4 0-4.4 1.7-4.9 4H2V24.8C2 22.2 4.2 20 6.8 20h38c.3 2.5 2.4 4.5 5 4.5 2.5 0 4.6-1.8 4.9-4.2h7.6c2.7 0 4.8 2.2 4.8 4.8V38H38.9zM68 73.9c-3.2 0-5.9-2.6-5.9-5.9s2.6-5.9 5.9-5.9c3.2 0 5.9 2.6 5.9 5.9s-2.7 5.9-5.9 5.9z"/>
</svg>
